PI6-4_423 0.266 59.7 689.7 2540.5 2516.4
2_470 0.267 44.4 918.7 1904.6 3356.9
PI4-19_591 0.302 1063.7 1797.3 2163.5 2752.2
PI6-19_208 0.267 59.4 688.8 2538.3 2517.7
PI6-9_420 0.271 2334.2 726.1 4021.0 2158.3
PI6-4_606 0.267 902.8 57.8 3382.8 1890.7
PI6-9_325 0.270 59.1 688.4 2538.5 2518.1
1_232 0.276 1203.6 1608.8 1829.6 2443.0
PI6-9_573 0.290 489.5 1545.9 1593.8 2507.7
3_214 0.268 677.0 76.6 2537.3 2521.2
PI6-19_7 0.272 526.8 1023.8 2479.4 1893.2
3_82 0.266 44.7 918.7 1904.4 3356.1
PI10-9_50 0.266 54.1 59.4 2543.4 1889.9
PI6-9_371 0.306 1613.3 1569.9 2615.3 2514.8
PI6-4_260 0.372 109.1 1635.3 1269.3 2656.1
3_12 0.265 1750.3 964.9 3011.5 2883.0
2_636 0.269 44.4 918.9 1904.8 3356.2
PI4-9_73 0.266 59.1 688.6 2539.1 2516.6
3_641 0.390 1087.0 1846.1 1696.5 2695.8
PI10-9_284 0.501 625.6 1159.6 1679.6 2178.6
3_32 0.273 1668.9 799.6 2619.7 1966.1
PI6-9_244 0.366 2507.2 313.9 3532.4 1250.9
3_282 0.268 720.2 930.7 2178.4 2097.7
PI6-19_304 0.266 59.3 688.8 2539.6 2516.6
PI4-9_429 0.268 2335.0 727.2 4023.2 2158.7
PI10-9_177 0.268 1816.6 1011.9 3752.5 1894.1
PI6-9_410 0.334 2495.5 874.6 3435.9 1835.8
1_51 0.269 1751.0 969.1 3013.8 2882.4
PI6-19_424 0.385 1699.9 486.7 2808.2 1583.3
3_317 0.268 40.2 79.2 1907.4 2520.5
3_291 0.274 1073.2 387.2 1945.0 1576.9
3_371 0.266 676.4 76.5 2536.2 2522.1
PI10-9_198 0.320 1522.9 1578.4 2638.2 2622.4
PI4-9_4 0.265 2336.5 725.0 4017.7 2159.4
PI6-19_308 0.269 2047.4 250.4 3079.0 1174.3
PI6-9_157 0.301 2451.0 1868.1 3309.3 2547.0
3_410 0.269 44.4 919.4 1905.0 3357.2
PI4-19_293 0.383 1429.7 1657.2 2464.5 2652.9
3_134 0.268 40.4 78.6 1907.9 2521.4
2_474 0.271 712.3 1363.3 2180.6 2522.8
PI6-4_12 0.265 59.8 689.3 2540.4 2516.9
PI6-4_344 0.400 151.6 1523.1 1295.0 2521.7
PI10-9_138 0.268 2331.1 726.1 4016.3 2161.4
2_192 0.270 1749.9 971.3 3016.0 2875.4
2_322 0.271 1756.6 1397.2 3022.6 3300.6
2_1 0.270 1751.3 968.7 3014.3 2876.1
PI4-19_92 0.269 950.6 1022.3 2906.5 1892.6
PI4-19_548 0.266 2334.7 727.6 4023.4 2159.7
PI10-9_156 0.371 1409.8 1420.4 2572.0 2496.3
PI6-9_416 0.267 59.1 689.8 2539.3 2516.0
2_85 0.269 1749.6 969.6 3016.2 2876.1
PI6-9_276 0.287 2268.0 1507.0 3080.8 2180.4
1_585 0.279 710.0 1365.9 2184.1 2519.0
1_513 0.269 396.8 1364.1 1857.7 2526.4
PI6-9_38 0.274 1642.9 1415.9 2582.9 2351.0
PI10-9_107 0.316 1170.7 570.4 2218.9 1647.4
2_250 0.271 1754.7 1397.7 3020.5 3298.6
PI4-9_556 0.269 2336.7 725.9 4022.5 2157.5
3_54 0.279 1025.0 507.3 1910.9 1637.4
3_646 0.276 858.6 1243.3 1770.4 2375.2
2_26 0.268 1749.9 967.8 3014.4 2879.2
3_457 0.267 44.8 919.7 1904.2 3355.3
3_266 0.266 1750.6 970.0 3013.4 2880.7
3_580 0.268 44.6 918.8 1904.2 3356.5
PI4-9_10 0.268 1764.5 686.6 4218.4 2520.1
PI4-9_399 0.266 59.9 689.2 2540.0 2516.6
3_396 0.266 44.8 917.6 1904.5 3355.9
PI6-19_241 0.297 1311.4 769.8 2313.2 1804.9
PI10-9_490 0.269 59.4 688.6 2539.5 2518.3
PI6-9_121 0.304 1201.0 1336.9 1970.6 2007.6
3_429 0.267 40.2 79.2 1907.2 2520.7
PI6-9_266 0.341 1671.6 843.1 2454.0 1568.8
PI6-4_308 0.345 2296.2 573.2 3297.5 1615.3
PI4-9_151 0.264 544.4 698.5 2472.4 1576.6
PI6-19_350 0.309 1633.5 820.9 2767.3 1690.6
PI10-9_321 0.334 1373.7 911.5 2496.2 1924.3
3_561 0.300 1373.4 759.0 1991.9 1618.2
3_228 0.264 679.5 1789.6 2529.4 4192.1
PI4-19_163 0.266 59.3 689.3 2538.7 2516.4
PI6-19_481 0.267 59.6 689.4 2538.7 2516.6
PI10-9_60 0.351 1209.3 1090.9 2172.8 2056.5
PI6-19_88 0.370 2225.7 1516.1 3044.3 2233.8
PI4-9_554 0.266 59.5 689.0 2539.3 2516.4
3_251 0.268 44.4 919.0 1904.0 3356.6
PI6-19_352 0.271 402.1 1469.8 1537.8 2380.1
PI6-4_556 0.266 59.0 689.2 2539.5 2517.3
PI6-9_471 0.337 1604.7 624.2 2666.6 1541.2
PI4-9_331 0.269 2335.6 724.7 4018.4 2161.5
PI6-9_72 0.341 2762.0 1689.4 3688.7 2639.6
PI6-4_45 0.267 2332.6 729.0 4020.7 2159.0
1_445 0.280 1234.1 754.7 1824.8 1599.5
PI10-9_238 0.267 1763.6 685.9 4216.8 2519.1
3_258 0.267 44.5 918.6 1904.7 3356.2
PI6-19_73 0.267 902.3 57.5 3382.8 1891.3
1_664 0.282 975.5 1018.5 1942.5 2008.7
2_603 0.269 1360.4 1350.0 2813.1 2525.2
2_10 0.267 44.5 919.0 1904.4 3355.1
1_330 0.264 44.5 918.7 1904.9 3356.6
1_649 0.268 44.3 918.0 1904.1 3357.6
PI10-9_345 0.331 1660.1 901.0 2792.1 1898.1
PI4-9_365 0.269 3015.8 1361.5 5031.6 2200.7
PI4-9_372 0.266 59.3 689.4 2539.5 2516.9
3_356 0.268 1755.0 1393.5 3019.4 3303.4
PI4-19_610 0.286 2292.1 1765.0 3033.0 2360.8
PI10-9_416 0.265 1763.5 686.8 4215.6 2518.7
2_287 0.267 44.4 919.7 1905.4 3357.0
PI4-19_490 0.270 2307.3 868.8 3087.9 1538.4
3_332 0.267 40.3 79.4 1908.0 2520.9
PI6-9_84 0.324 1647.7 1493.4 2811.0 2512.8
1_94 0.267 397.7 1363.1 1857.2 2528.0
PI6-9_426 0.347 2284.2 1455.6 3311.7 2356.3
3_255 0.268 677.1 76.0 2537.6 2521.9
3_259 0.269 44.1 919.5 1904.4 3357.3
PI4-9_103 0.264 59.0 688.7 2539.4 2517.0
PI6-4_594 0.302 2828.8 422.3 3570.2 1087.6
PI6-4_668 0.266 59.3 689.1 2538.9 2516.9
3_556 0.268 44.6 918.6 1903.9 3357.3
PI10-9_181 0.398 1676.0 499.4 2786.3 1646.6
PI10-9_106 0.267 59.3 689.5 2539.3 2517.6
PI6-9_163 0.273 526.6 1023.3 2480.1 1894.1
2_63 0.268 713.2 1363.3 2179.3 2523.6
1_2 0.279 1084.3 1430.9 1663.6 2254.2
PI6-9_524 0.345 879.6 476.7 1825.1 1423.3
PI10-9_435 0.438 1739.3 1011.9 2789.2 1977.9
PI10-9_73 0.392 1217.9 1166.9 2263.0 2172.3
PI10-9_307 0.353 296.6 1363.0 1430.3 2402.0
PI6-4_412 0.266 53.7 60.3 2544.4 1889.0
3_640 0.267 40.3 79.0 1908.2 2521.2
1_413 0.267 1093.1 1451.5 1697.4 2274.1
PI6-19_8 0.274 948.1 1023.8 2909.0 1890.3
PI4-9_579 0.267 2342.6 1047.2 4026.1 2476.8
PI6-19_385 0.418 1872.2 1315.7 2646.5 2076.7
3_608 0.268 44.0 918.2 1903.7 3356.5
PI4-9_233 0.262 1913.1 731.7 3626.7 2155.9
PI6-4_535 0.265 2333.3 1376.1 4037.0 2770.0
1_186 0.268 95.8 2459.5 712.5 3309.6
PI6-19_323 0.267 58.7 688.5 2539.4 2518.3
PI6-19_554 0.390 835.0 1250.6 1786.9 2254.2
PI6-9_176 0.269 951.8 1020.7 2905.0 1892.6
1_15 0.270 396.7 1363.7 1858.6 2526.3
2_80 0.268 1757.0 1395.9 3020.5 3302.8
PI6-19_551 0.297 588.9 735.3 1545.9 1691.3
PI4-19_286 0.268 1377.8 1534.3 2732.0 2401.7
PI6-9_500 0.385 1609.3 1346.7 2446.8 2052.3
1_589 0.266 1057.7 1618.2 2173.2 2548.4
PI6-19_177 0.269 59.1 688.6 2537.6 2517.5
PI6-4_432 0.298 976.7 1678.1 1759.6 2353.6
PI4-9_358 0.268 59.4 688.8 2539.3 2517.2
2_436 0.268 403.2 498.1 1852.0 1676.0
PI10-9_426 0.333 2292.5 1310.9 3441.0 2454.9
PI6-19_365 0.295 759.1 1239.9 1824.8 2258.3
PI6-4_453 0.267 951.6 1021.9 2906.2 1893.2
PI4-9_437 0.270 194.0 1396.0 1220.2 2302.3
PI4-9_154 0.272 2333.6 726.2 4019.8 2159.2
2_19 0.268 45.1 919.3 1904.8 3355.2
3_517 0.334 955.5 2074.5 1544.4 2917.2
3_380 0.270 44.6 918.8 1904.7 3357.1
PI4-19_424 0.271 58.8 688.8 2538.4 2518.7
PI4-9_545 0.270 58.4 688.2 2538.6 2517.6
PI4-9_489 0.268 59.3 688.0 2538.7 2517.0
PI6-4_90 0.281 2505.6 429.4 3529.2 1438.3
PI4-19_436 0.272 1674.6 1034.7 2813.7 2020.4
PI6-9_486 0.308 1526.1 949.6 2468.4 1854.4
1_358 0.268 1755.7 1395.4 3018.5 3304.7
PI4-19_336 0.306 404.2 858.4 1542.4 1932.4
PI4-9_221 0.269 2322.4 409.1 4022.7 1840.6
PI6-19_464 0.271 58.3 688.4 2538.1 2518.8
PI4-19_70 0.265 2333.1 723.8 4014.3 2161.8
PI4-19_318 0.317 1503.5 1201.0 2516.8 2189.9
3_197 0.267 45.1 919.1 1904.5 3355.6
1_463 0.267 1751.3 968.1 3013.3 2881.2
PI6-9_165 0.277 533.8 1217.7 1780.1 2092.5
PI6-9_571 0.269 53.3 59.1 2542.7 1890.9
3_444 0.269 1721.9 1674.4 2305.8 2476.5
PI6-19_222 0.302 -19.6 -81.1 1136.7 918.2
1_134 0.267 714.1 1362.1 2179.5 2524.3
1_187 0.268 44.1 918.0 1903.9 3357.6
PI4-9_306 0.269 2332.5 726.9 4018.7 2160.2
2_455 0.268 44.3 918.9 1904.5 3357.4
PI4-9_432 0.269 2334.5 726.6 4022.4 2159.8
PI4-19_592 0.429 1578.0 1467.1 2572.8 2475.7
PI6-9_367 0.269 59.3 689.5 2539.7 2517.8
3_104 0.267 677.0 76.6 2537.3 2522.3
1_480 0.267 44.5 918.8 1904.5 3356.6
PI10-9_499 0.268 1912.0 735.2 3632.7 2150.9
PI4-9_296 0.269 1910.1 735.9 3631.4 2152.6
PI4-9_332 0.260 970.8 696.0 2898.4 1576.9
1_38 0.270 1756.6 1396.1 3020.6 3302.6
3_75 0.269 1751.3 966.9 3013.7 2880.4
PI10-9_373 0.408 1561.5 419.5 2543.9 1375.3
2_503 0.299 77.8 2689.5 683.2 3513.3
2_69 0.268 40.1 78.5 1907.2 2521.9
2_17 0.268 677.2 76.1 2537.6 2521.3
PI6-4_98 0.285 648.5 515.4 1300.6 1300.1
PI6-9_412 0.372 437.0 762.1 1515.7 1761.8
PI4-19_159 0.325 1248.7 509.0 2298.7 1513.1
PI4-19_524 0.381 2191.7 1293.0 3291.6 2213.6
PI6-19_145 0.423 2597.5 1137.0 3553.8 2028.8
PI4-19_187 0.267 902.9 57.8 3383.6 1891.1
PI6-19_473 0.343 1478.8 881.8 2213.4 1567.1
2_621 0.265 1322.7 915.1 3161.8 3359.0
PI4-9_368 0.269 2335.1 726.5 4020.6 2159.3
3_533 0.268 44.3 919.1 1904.0 3356.1
3_666 0.270 2262.5 1816.3 3773.9 2934.4
3_29 0.269 44.1 918.5 1904.9 3356.9
1_194 0.269 44.4 919.2 1904.8 3356.5
2_215 0.262 785.2 995.4 2094.7 2852.6
PI6-4_629 0.267 59.8 688.8 2540.0 2516.6
PI10-9_219 0.270 1814.2 1013.2 3751.6 1892.6
3_638 0.268 44.6 918.6 1904.5 3356.4
PI4-19_406 0.341 161.0 1511.3 1299.6 2563.5
3_442 0.268 1750.5 968.0 3011.5 2881.2
1_414 0.267 44.5 917.4 1903.8 3356.8
2_105 0.271 1734.6 133.8 3020.1 2024.3
PI10-9_27 0.270 2333.0 724.6 4018.1 2161.1
1_128 0.268 44.2 917.5 1903.5 3357.5
3_406 0.267 2261.9 1816.0 3774.0 2935.1
PI4-19_139 0.278 2118.1 1143.3 3184.0 1983.2
PI4-19_241 0.267 58.6 689.4 2538.7 2517.0
2_190 0.272 1752.5 966.7 3014.4 2878.2
3_333 0.290 1502.8 1862.7 2171.6 2698.6
3_102 0.268 396.4 1363.7 1857.6 2526.2
1_84 0.268 44.5 918.6 1904.3 3355.7
2_66 0.314 411.4 1664.0 1053.0 2495.2
PI6-4_320 0.267 60.0 688.9 2538.8 2515.9
1_504 0.269 1749.9 970.2 3013.9 2881.7
1_524 0.268 40.0 78.6 1907.2 2521.2
3_482 0.264 1755.5 1395.6 3019.2 3302.7
2_601 0.267 676.7 76.4 2536.8 2522.0
PI4-9_312 0.268 2333.3 726.1 4018.8 2161.5
PI4-19_240 0.265 1763.7 686.8 4217.0 2518.6
PI4-9_186 0.302 2084.8 1509.0 2848.3 2176.0
PI6-9_200 0.328 1215.0 1525.7 2200.1 2459.6
PI4-9_308 0.267 2321.5 411.1 4022.1 1839.0
PI4-19_98 0.270 527.8 1023.2 2477.5 1894.1
1_600 0.267 44.1 918.3 1904.4 3357.5
PI10-9_241 0.268 59.7 689.0 2539.7 2516.8
2_299 0.265 1322.7 915.9 3162.8 3358.0
PI6-9_139 0.278 1630.8 887.6 2437.0 1579.3
1_405 0.270 1750.1 968.9 3015.5 2877.6
PI4-19_172 0.268 903.1 57.8 3384.4 1891.2
1_7 0.268 44.5 918.2 1904.4 3357.3
PI4-19_536 0.266 59.9 688.6 2537.6 2516.2
2_585 0.269 44.3 919.5 1904.5 3356.7
3_62 0.266 44.0 917.4 1902.9 3357.1
PI6-9_238 0.267 2333.7 726.0 4018.1 2159.1
PI6-9_210 0.272 2332.6 726.6 4020.7 2158.9
PI6-4_229 0.263 906.0 1341.9 3370.8 3144.0
PI4-19_378 0.296 1145.4 736.7 2161.2 1699.8
PI6-19_506 0.267 59.6 689.8 2541.0 2516.5
2_565 0.268 677.0 76.6 2537.1 2521.5
3_357 0.265 40.5 79.6 1907.3 2519.0
PI6-4_314 0.374 2320.2 1081.5 3054.6 1751.9
3_39 0.267 40.2 78.8 1906.8 2519.8
PI6-19_268 0.310 524.3 1663.8 1600.9 2682.4
PI6-9_319 0.286 1369.5 1220.3 2193.2 1888.9
PI4-9_329 0.268 58.4 688.6 2537.4 2518.0
PI4-9_228 0.268 2335.2 726.2 4019.0 2160.5
PI6-19_432 0.269 2322.7 409.3 4025.3 1839.0
1_168 0.268 44.3 918.8 1904.2 3357.4
1_624 0.267 1750.4 968.8 3015.2 2879.4
PI10-9_113 0.518 2131.5 610.6 3124.5 1525.0
PI6-9_436 0.338 1638.3 1728.3 2653.6 2654.3
PI6-9_309 0.284 1233.1 1067.4 2003.0 1719.0
PI10-9_133 0.426 2535.2 357.1 3621.9 1354.8
1_318 0.310 514.0 502.6 1406.2 1627.1
PI6-19_423 0.268 59.1 689.1 2538.6 2517.2
PI6-9_222 0.365 655.9 838.6 1749.0 1844.5
PI6-4_158 0.281 2094.8 477.0 3087.2 1349.8
2_16 0.277 395.9 1791.8 1049.1 2657.5
PI10-9_89 0.485 1437.5 1378.8 2477.5 2334.5
PI4-9_591 0.269 2334.2 728.8 4022.7 2159.6
PI10-9_442 0.268 1814.1 1012.0 3751.6 1894.6
3_146 0.282 1139.5 1224.7 1895.1 2092.7
1_218 0.323 1350.7 1454.1 2017.4 2265.1
1_562 0.268 397.1 1363.1 1858.6 2526.2
PI6-9_575 0.301 285.7 1122.9 1453.9 2015.7
PI10-9_293 0.455 754.4 882.6 1800.6 1846.3
1_409 0.268 679.6 1789.5 2529.0 4192.9
2_36 0.266 676.7 77.0 2536.6 2521.3
PI6-4_257 0.331 1472.1 631.6 2235.5 1224.6
PI4-9_588 0.295 2051.9 1378.9 2835.2 2019.8
1_439 0.268 1352.6 1713.8 2220.3 2805.4
PI4-19_539 0.342 1211.3 1180.4 1925.3 1841.3
1_56 0.267 44.8 919.5 1905.4 3356.7
3_627 0.303 1601.4 1561.4 2175.1 2429.2
PI6-4_476 0.267 59.2 688.4 2538.9 2518.1
PI6-19_480 0.268 59.6 689.2 2540.1 2516.5
PI10-9_212 0.268 2337.0 726.6 4020.5 2161.6
3_50 0.267 40.2 79.9 1907.3 2521.1
PI6-9_246 0.331 487.3 723.4 1576.3 1731.5
PI10-9_81 0.415 1100.5 815.2 2198.9 1794.6
PI6-19_275 0.267 902.7 57.9 3383.3 1890.9
PI6-9_77 0.302 2421.2 877.2 3537.6 1861.9
PI6-4_647 0.303 399.4 295.0 1515.4 1286.3
PI6-19_348 0.377 2482.9 1843.2 3270.1 2538.9
PI10-9_229 0.273 531.6 699.7 2478.2 1573.2
2_662 0.355 1808.2 2575.4 2725.7 3697.3
PI10-9_252 0.266 1764.1 687.1 4217.0 2517.3
PI4-9_225 0.265 54.1 59.9 2543.8 1889.6
PI4-9_415 0.267 59.7 689.2 2539.4 2516.3
3_653 0.267 44.3 918.4 1904.6 3357.1
1_539 0.268 1750.2 967.7 3014.4 2879.8
PI6-9_213 0.269 2334.3 725.8 4018.4 2159.4
PI6-9_569 0.317 2254.4 1347.5 3063.3 2023.0
PI4-9_69 0.265 59.1 689.1 2539.7 2517.2
1_596 0.268 44.6 918.7 1904.6 3356.2
3_379 0.330 1399.6 1794.8 1995.3 2651.4
3_107 0.269 1749.6 966.1 3013.0 2879.1
2_411 0.269 44.1 918.2 1904.3 3357.5
PI6-4_218 0.267 2334.4 725.1 4019.5 2158.9
1_245 0.286 949.4 1815.6 1507.5 2681.5
PI6-19_252 0.267 59.6 688.9 2539.4 2517.4
PI6-4_564 0.299 1505.1 1634.9 2294.9 2323.6
PI4-9_521 0.267 2337.8 1047.4 4025.0 2476.6
PI4-9_454 0.265 59.6 688.8 2539.5 2516.3
PI10-9_486 0.332 747.2 671.2 1802.9 1621.6
PI4-9_398 0.268 1764.0 686.9 4217.6 2518.4
PI10-9_495 0.265 59.3 689.4 2539.2 2517.1
PI6-9_230 0.434 477.9 1823.9 1564.4 2836.5
2_523 0.269 44.4 917.5 1903.9 3357.7
PI4-19_31 0.329 860.1 1426.4 1885.2 2399.6
PI4-19_15 0.264 53.9 60.4 2543.6 1889.5
2_308 0.268 44.2 918.3 1904.8 3355.4
PI6-19_249 0.270 58.3 688.9 2537.7 2518.2
PI6-9_3 0.268 528.8 1022.8 2476.8 1895.3
3_339 0.268 44.2 918.9 1904.2 3355.9
PI10-9_102 0.269 2336.9 725.5 4020.6 2160.6
3_328 0.269 44.3 917.4 1903.4 3357.8
1_242 0.294 1391.4 1778.2 2283.3 2874.4
PI10-9_259 0.273 2334.6 728.6 4023.6 2157.8
PI4-19_474 0.267 902.8 57.3 3383.3 1891.6
PI6-19_496 0.288 1314.9 913.2 2080.7 1584.1
3_33 0.270 43.9 918.4 1904.0 3357.4
2_374 0.270 676.9 76.0 2537.2 2522.4
3_350 0.267 1750.4 970.9 3015.3 2879.9
2_560 0.266 44.2 919.8 1904.5 3356.8
PI6-4_185 0.273 814.4 1536.4 1530.1 2167.3
PI4-9_562 0.270 1814.5 1013.5 3753.4 1891.8
PI6-9_153 0.411 1871.9 939.3 2889.7 1868.9
PI6-9_218 0.270 2339.1 1048.3 4028.4 2475.5
2_645 0.268 396.5 1363.3 1855.9 2526.5
PI10-9_445 0.503 825.5 1385.8 1846.3 2374.2
PI4-19_335 0.296 1622.6 1992.9 2453.0 2635.8
PI4-19_50 0.283 1724.3 429.4 2675.7 1383.4
PI6-19_297 0.269 59.1 688.8 2537.1 2517.6
2_519 0.266 1433.1 977.3 2723.4 2867.7
PI4-9_204 0.262 548.9 372.6 2461.3 1259.7
PI6-4_155 0.265 59.5 689.3 2540.1 2517.0
2_179 0.273 1750.6 969.3 3015.3 2879.9
PI4-9_35 0.270 628.4 735.1 2349.6 2159.0
PI6-9_427 0.269 2333.6 727.3 4018.4 2159.3
PI6-4_607 0.267 59.1 688.8 2539.5 2517.2
PI4-19_269 0.267 1089.1 701.7 1757.8 1348.0
3_168 0.266 44.9 919.0 1904.7 3355.9
PI4-19_44 0.289 1437.9 951.2 2406.1 1871.6
PI4-19_63 0.376 1013.9 1012.5 1997.3 2025.5
PI6-9_207 0.347 1376.4 1422.4 2358.0 2395.1
3_364 0.268 676.9 76.7 2537.5 2520.9
PI10-9_59 0.458 2132.2 542.4 3186.9 1693.6
PI10-9_474 0.267 2335.4 727.2 4019.5 2162.0
PI6-9_332 0.270 959.1 698.7 2906.4 1573.0
2_496 0.269 1748.9 1836.3 3027.6 3694.8
PI4-9_127 0.268 59.3 689.0 2539.7 2518.2
PI6-9_466 0.269 2334.2 726.4 4020.7 2160.1
1_416 0.266 44.4 918.8 1905.6 3357.2
2_147 0.269 1750.3 968.7 3014.4 2878.0
PI6-19_90 0.271 2335.6 727.3 4021.2 2160.1
PI6-9_295 0.297 1400.3 1861.8 2422.0 2792.7
PI6-19_50 0.313 603.2 65.7 1709.9 1059.9
PI4-19_62 0.268 58.7 689.0 2538.6 2518.1
1_215 0.267 44.9 919.2 1904.7 3355.8
PI6-4_0 0.336 735.8 1427.9 1646.8 2309.3
PI6-4_259 0.265 905.9 1342.3 3370.8 3143.6
PI4-19_136 0.276 2020.3 1720.3 2860.7 2332.0
PI6-19_136 0.286 2164.6 561.2 2946.4 1269.7
PI4-19_248 0.269 950.6 1022.5 2906.9 1892.1
3_581 0.267 677.0 75.9 2536.6 2522.3
PI4-19_465 0.331 1258.9 1427.3 2319.4 2380.4
PI6-19_460 0.377 2709.0 906.1 3678.8 1853.2
PI10-9_448 0.268 1794.0 1563.9 2961.0 2601.3
PI10-9_446 0.456 1710.2 1503.3 2803.0 2637.4
PI4-19_619 0.280 1500.3 581.5 2220.1 1275.6
PI6-19_392 0.316 1713.9 984.8 2381.4 1733.0
PI10-9_359 0.277 2312.6 1235.3 3498.4 2337.4
3_279 0.268 40.3 79.0 1907.0 2519.4
PI6-19_107 0.269 59.1 689.6 2539.6 2517.6
1_27 0.268 44.7 918.7 1905.3 3356.5
3_537 0.267 44.4 917.9 1904.1 3357.2
1_652 0.268 712.4 1362.4 2180.7 2524.0
PI6-4_261 0.296 2737.4 2342.9 3548.0 2970.5
PI6-4_615 0.326 2283.0 1785.6 3068.7 2387.7
PI6-19_533 0.363 1750.3 1531.7 2771.9 2485.3
PI4-19_404 0.272 525.9 1024.3 2478.7 1893.2
1_556 0.269 44.3 918.4 1904.8 3356.5
PI4-19_502 0.315 1205.5 1388.5 1953.4 2039.4
1_532 0.269 396.0 1364.5 1859.2 2525.9
PI6-9_440 0.270 1811.8 1013.2 3753.3 1893.2
3_16 0.268 44.4 918.9 1904.6 3357.2
PI6-4_628 0.265 59.8 689.0 2539.6 2517.5
PI6-9_537 0.310 1190.5 1700.0 2135.7 2647.7
PI4-9_496 0.267 59.5 688.5 2539.2 2516.9
PI4-19_303 0.267 58.9 689.1 2538.5 2516.4
1_349 0.269 44.1 918.7 1904.9 3357.9
1_300 0.268 44.8 918.7 1905.4 3356.3
PI6-4_285 0.370 415.3 353.3 1592.8 1365.6
PI4-9_475 0.264 59.8 689.4 2540.8 2517.0
PI6-9_134 0.340 960.7 1536.5 1982.1 2446.2
1_444 0.301 590.9 733.0 1466.3 1792.5
PI6-4_429 0.265 1764.1 686.6 4217.2 2518.8
1_287 0.267 44.5 919.2 1904.5 3356.8
2_129 0.285 1524.9 211.1 2469.1 1344.1
PI4-19_304 0.269 2334.3 728.4 4023.2 2159.1
PI6-19_22 0.269 2342.2 1045.4 4026.4 2477.1
PI10-9_305 0.403 262.9 1074.8 1419.4 2061.8
PI4-19_233 0.266 902.3 57.5 3383.1 1891.1
PI4-9_457 0.264 59.6 689.2 2539.3 2516.7
PI6-19_525 0.266 54.2 59.7 2544.0 1890.3
PI6-19_442 0.329 2269.2 881.7 3067.4 1559.4
PI6-19_429 0.266 902.5 57.1 3382.2 1891.2
PI6-19_303 0.271 58.6 688.2 2537.8 2518.4
PI4-19_169 0.267 530.0 1023.0 2478.3 1894.6
PI4-9_94 0.271 2334.5 727.2 4021.3 2159.8
PI6-19_321 0.388 1047.8 411.2 1983.7 1410.4
3_94 0.269 676.9 76.1 2537.8 2521.9
1_579 0.265 679.4 1789.1 2529.0 4191.2
PI10-9_297 0.267 902.4 57.5 3383.3 1891.5
PI4-19_104 0.379 1760.3 1249.5 2756.8 2227.1
PI6-4_367 0.267 905.7 1341.9 3371.5 3144.1
2_388 0.268 44.4 919.4 1905.1 3356.1
PI6-4_239 0.368 1254.7 750.2 2323.6 1838.7
3_353 0.266 1748.2 968.7 3009.8 2882.1
PI10-9_95 0.308 1315.7 1526.1 2427.9 2565.0
PI4-9_34 0.264 2335.7 725.5 4016.8 2163.1
2_576 0.267 1749.4 967.3 3013.4 2879.4
PI10-9_437 0.271 533.3 699.9 2477.6 1573.5
PI6-19_242 0.273 2333.1 728.9 4023.2 2158.0
1_660 0.302 922.2 2607.1 1896.0 3715.9
PI6-19_512 0.370 2337.8 1054.4 3144.1 1696.9
2_67 0.271 1750.6 968.7 3013.8 2877.3
3_470 0.267 678.9 1789.0 2528.4 4193.5
2_557 0.270 2015.9 1397.2 2641.4 2260.5
PI6-9_125 0.325 2273.2 930.4 3310.7 1839.8
3_67 0.288 1072.8 1840.3 1700.5 2725.8
PI6-19_244 0.268 58.4 688.6 2538.8 2518.3
PI4-19_606 0.330 1637.7 763.5 2609.7 1737.9
PI6-4_625 0.266 53.0 59.6 2542.7 1891.0
PI4-9_140 0.266 902.8 57.6 3382.9 1891.7
PI6-19_31 0.279 1031.5 1205.2 1798.2 1878.5
PI6-19_510 0.362 596.2 1600.0 1643.4 2657.5
PI10-9_257 0.336 2114.1 1117.7 3303.2 2159.1
PI10-9_217 0.487 1999.0 1133.9 2966.6 2045.8
PI10-9_38 0.366 1242.4 914.4 2348.1 1936.3
2_606 0.271 1433.6 979.8 2723.7 2868.4
PI6-9_321 0.376 465.2 936.5 1618.9 1886.0
PI10-9_122 0.335 656.2 709.0 1409.9 1375.9
PI6-19_311 0.301 514.1 1235.0 1586.6 2155.1
1_228 0.269 44.1 919.8 1904.5 3356.9
1_501 0.285 185.5 1383.6 1231.5 2564.0
PI10-9_68 0.482 399.3 1506.3 1526.3 2527.2
PI6-4_572 0.424 1204.5 531.0 2203.3 1496.7
PI4-9_501 0.270 2332.6 727.8 4019.1 2161.4
2_504 0.269 677.1 75.7 2536.9 2521.8
PI4-9_50 0.268 59.1 688.9 2539.0 2517.4
2_549 0.323 1997.3 2526.5 2671.6 3326.4
PI6-4_674 0.325 452.6 501.8 1376.2 1455.8
PI4-9_250 0.267 2334.9 728.9 4020.4 2158.6
PI6-4_666 0.267 902.2 57.8 3382.7 1891.2
PI10-9_430 0.373 1666.0 1206.1 2484.3 1949.8
3_424 0.267 44.4 918.9 1904.5 3356.6
PI4-19_531 0.282 1735.4 957.6 2704.9 1880.6
1_407 0.371 1384.9 685.5 2341.1 1694.0
PI6-19_310 0.275 2588.1 982.8 3200.9 1763.2
PI6-9_277 0.270 1046.9 742.9 2785.9 2142.2
1_265 0.296 1506.4 1472.2 2147.8 2265.4
3_557 0.265 44.1 917.6 1903.7 3357.7
PI4-19_377 0.293 1868.3 1250.4 2816.4 2133.3
PI4-19_48 0.329 437.9 44.0 1399.8 983.6
2_78 0.266 1755.8 1395.8 3018.8 3303.9
3_661 0.270 1740.4 545.2 3017.0 2452.0
1_574 0.268 44.9 918.9 1904.1 3355.0
PI6-9_411 0.296 1860.5 1342.0 2655.9 2031.8
2_357 0.268 1749.8 969.4 3014.2 2877.5
PI6-9_112 0.271 2334.4 727.4 4022.1 2158.0
2_311 0.270 396.0 1363.3 1857.5 2525.6
PI4-19_598 0.269 53.5 59.0 2542.7 1890.2
PI4-9_339 0.267 2322.1 409.3 4024.3 1840.5
1_453 0.268 44.1 919.4 1904.9 3358.0
PI6-4_7 0.279 858.3 205.5 1955.0 1281.5
2_270 0.268 1750.8 969.5 3013.6 2882.1
3_445 0.278 1718.4 1872.3 2323.2 2692.6
PI4-9_375 0.267 902.5 57.7 3383.9 1892.0
PI4-19_366 0.266 59.5 688.5 2540.5 2517.8
PI6-9_221 0.269 1540.3 574.2 2468.0 1503.9
PI6-9_488 0.277 595.6 1345.7 1738.4 2370.5
2_279 0.343 1590.5 1024.0 2472.5 2133.4
2_665 0.344 706.2 76.4 1666.4 1120.8
PI4-19_206 0.266 906.3 1342.1 3372.7 3144.2
3_131 0.268 44.1 918.5 1904.4 3357.2
PI4-19_244 0.268 2442.5 841.0 3665.3 1644.5
PI6-4_352 0.317 1071.9 638.1 2165.2 1684.9
PI4-19_540 0.267 952.0 1022.2 2904.4 1893.5
PI6-4_196 0.324 2303.8 1017.9 3038.4 1723.2
PI6-19_184 0.268 2264.9 703.7 3020.0 1376.2
PI4-19_71 0.344 2518.2 130.2 3581.8 1109.6
3_81 0.280 1400.2 1352.2 2012.2 2206.2
PI4-19_351 0.270 950.8 1022.2 2907.2 1892.5
PI6-4_144 0.396 152.5 1567.9 888.0 2187.8
PI4-19_578 0.385 203.0 1040.5 1314.5 2076.0
3_119 0.267 40.3 78.9 1906.7 2519.4
2_262 0.269 44.3 919.0 1904.9 3357.2
PI10-9_96 0.296 787.9 858.9 1606.8 1462.3
PI6-9_8 0.425 1628.2 1507.1 2589.4 2495.0
3_196 0.265 44.5 918.7 1904.6 3356.8
3_476 0.268 676.7 76.5 2537.4 2521.3
PI6-4_321 0.281 1522.1 1357.9 2292.5 2007.5
PI4-19_144 0.276 798.1 1527.6 1589.6 2207.6
PI4-19_511 0.348 2334.2 1095.9 3375.6 2046.0
PI6-19_339 0.313 1638.0 672.2 2840.8 1743.2
1_367 0.268 676.9 76.4 2536.6 2522.1
3_399 0.268 1323.5 915.2 3163.9 3358.8
2_245 0.302 865.2 380.2 1790.8 1619.6
PI6-19_98 0.335 996.4 673.3 2223.5 1739.3
3_243 0.270 2261.5 1816.7 3774.1 2934.4
2_93 0.270 44.3 918.9 1904.8 3357.0
3_473 0.265 44.6 918.4 1903.9 3355.4
PI10-9_318 0.268 2335.9 723.7 4017.5 2162.4
PI6-4_86 0.266 2340.1 1043.2 4021.8 2477.8
PI10-9_104 0.352 2471.4 1371.4 3541.1 2423.8
3_466 0.269 44.4 918.6 1904.7 3356.6
1_541 0.330 1448.0 2133.3 2463.4 3279.7
2_481 0.269 1751.3 968.6 3012.9 2881.8
PI10-9_157 0.268 53.4 59.1 2543.1 1890.8
PI10-9_338 0.359 2363.1 513.1 3470.6 1600.3
PI6-4_100 0.267 902.6 57.6 3382.6 1891.2
PI6-4_579 0.266 2333.7 725.9 4016.7 2158.1
PI6-9_195 0.268 903.1 57.7 3383.4 1891.1
1_376 0.266 1755.9 1396.5 3019.2 3300.9
PI4-19_30 0.267 528.9 1022.0 2476.9 1895.3
2_160 0.309 809.9 93.5 1678.4 1313.3
PI6-9_530 0.268 965.8 372.3 2902.3 1257.1
PI6-4_473 0.267 2333.7 725.9 4018.8 2160.6
1_427 0.269 719.1 930.7 2179.8 2097.3
3_213 0.267 44.3 919.6 1904.9 3356.9
PI6-19_401 0.268 58.8 688.5 2537.9 2517.0
PI6-19_278 0.306 1526.7 22.9 2572.4 919.0
PI4-19_283 0.278 2132.9 32.8 2784.6 816.6
PI4-19_604 0.302 634.9 1519.1 1822.2 2572.2
PI10-9_467 0.417 2131.8 1008.9 3192.3 2002.9
1_75 0.268 44.5 918.0 1903.9 3356.9
1_130 0.267 723.2 495.9 2177.4 1676.4
PI6-9_389 0.273 1666.1 764.1 2665.5 1638.0
PI6-9_529 0.344 628.6 1466.6 1636.8 2346.6
1_165 0.268 676.6 75.8 2536.7 2521.7
1_553 0.270 1034.9 1354.7 2498.3 2521.5
PI4-19_251 0.363 603.9 879.3 1351.6 1549.0
PI6-9_337 0.267 59.0 689.2 2539.6 2517.3
1_565 0.267 44.2 918.8 1904.4 3357.1
2_551 0.270 1750.1 969.8 3013.1 2878.1
1_317 0.319 1418.8 1628.7 2032.5 2472.2
1_499 0.268 44.3 918.2 1904.4 3356.0
3_183 0.267 44.5 918.7 1905.2 3357.3
PI6-4_590 0.267 59.9 690.0 2540.5 2517.2
PI4-9_265 0.268 59.1 688.2 2537.8 2516.7
2_172 0.269 396.4 1363.0 1858.8 2526.1
2_392 0.269 44.2 918.5 1904.1 3356.8
PI4-9_587 0.267 1764.1 686.3 4218.4 2519.5
PI10-9_281 0.370 1627.4 1309.3 2646.4 2199.8
PI6-4_228 0.271 1371.7 1840.9 2540.2 2793.8
2_158 0.271 1749.2 969.6 3014.7 2877.0
PI6-9_424 0.267 902.6 57.5 3382.8 1891.5
2_303 0.267 44.2 918.1 1904.3 3356.3
PI4-9_510 0.268 59.2 688.8 2539.3 2516.7
2_106 0.271 1749.5 966.3 3014.4 2880.4
3_187 0.281 1747.0 1618.2 2345.4 2455.1
PI6-4_170 0.361 1290.2 709.0 2228.4 1594.4
2_327 0.269 44.2 918.5 1904.3 3356.4
1_37 0.268 1749.1 968.8 3012.8 2882.7
PI4-19_218 0.376 1295.1 1166.0 2368.8 2194.8
2_568 0.272 1251.8 -154.9 2139.0 1046.9
3_630 0.269 44.2 917.8 1904.3 3357.0
PI4-19_7 0.266 53.3 59.3 2542.5 1890.7
PI4-19_52 0.270 58.9 689.3 2538.9 2517.5
3_337 0.272 1070.3 1378.5 1683.4 2281.0
PI6-9_240 0.269 2333.5 725.9 4018.4 2160.4
PI4-9_207 0.270 2333.2 726.1 4020.1 2159.8
PI6-9_211 0.335 1591.5 2007.1 2400.1 2655.9
PI6-9_154 0.366 1431.7 1190.4 2371.1 2141.4
3_265 0.269 39.9 79.1 1906.8 2521.3
2_498 0.268 679.2 1789.7 2529.2 4194.3
1_545 0.267 40.4 78.9 1906.9 2520.8
2_47 0.267 44.4 918.7 1905.2 3357.6
PI4-19_145 0.266 59.8 689.5 2538.6 2515.9
PI6-9_81 0.322 2458.8 1089.1 3622.7 2031.0
PI6-4_27 0.485 1071.9 463.7 2068.3 1416.6
PI6-4_211 0.384 159.7 1398.3 1229.5 2327.8
3_121 0.403 1397.2 2727.4 2022.3 3574.8
PI6-4_366 0.339 372.8 686.6 1523.8 1723.8
2_658 0.267 44.3 918.2 1904.7 3357.0
PI4-9_485 0.265 1817.3 1010.1 3749.7 1896.8
PI10-9_225 0.441 1040.9 725.6 2040.3 1707.8
PI4-19_179 0.269 1633.3 220.9 2574.9 1162.6
PI6-4_28 0.269 2334.0 725.5 4015.5 2160.2
PI6-19_48 0.268 2334.3 726.2 4019.7 2158.3
PI6-19_66 0.266 59.4 689.9 2539.3 2517.2
PI4-19_601 0.266 902.2 57.0 3382.8 1891.2
1_293 0.272 395.2 1364.0 1858.6 2524.8
PI6-9_167 0.270 2340.1 1046.8 4026.3 2477.3
1_459 0.273 1751.0 971.1 3015.9 2877.4
2_423 0.270 44.4 917.9 1904.4 3355.9
1_508 0.267 1750.4 970.5 3016.6 2879.8
3_111 0.268 1750.0 968.0 3014.1 2880.3
PI6-4_169 0.403 532.5 1515.3 1358.1 2224.6
1_544 0.270 1753.8 1397.4 3018.1 3303.8
PI6-4_68 0.269 2324.0 407.0 4022.4 1838.6
1_633 0.276 710.2 1364.6 2183.7 2520.3
PI6-9_202 0.312 994.8 760.7 2011.8 1691.2
2_422 0.267 44.3 919.0 1905.5 3356.8
PI6-9_473 0.273 1163.0 461.1 2218.7 1345.5
PI6-4_550 0.370 2394.1 1612.0 3398.6 2502.0
PI4-9_325 0.266 53.7 59.4 2543.0 1890.8
PI4-9_404 0.265 59.5 689.0 2539.6 2516.7
3_619 0.268 44.6 917.4 1904.8 3357.3
3_486 0.268 40.3 79.1 1907.5 2520.2
2_13 0.265 44.8 918.8 1905.0 3355.8
1_190 0.267 44.7 919.0 1905.1 3354.9
PI10-9_333 0.402 2310.4 1150.7 3427.4 2280.3
PI10-9_454 0.266 1764.4 686.7 4217.7 2518.0
PI4-19_538 0.303 2103.0 950.7 2814.8 1532.7
2_40 0.311 401.9 220.2 1342.8 1295.7
3_155 0.350 352.0 615.9 1350.3 1762.6
PI6-19_495 0.269 527.4 1024.2 2477.1 1893.3
1_386 0.267 44.4 918.5 1904.9 3356.0
PI4-9_21 0.268 2334.7 726.1 4020.6 2161.2
2_632 0.270 1749.6 971.8 3014.7 2878.7
PI6-9_552 0.268 530.0 1022.9 2478.2 1895.2
PI6-9_446 0.294 1404.6 466.8 2419.0 1377.9
2_71 0.308 629.4 1234.0 1512.6 2339.7
PI10-9_317 0.267 53.4 59.5 2543.7 1890.5
PI6-4_494 0.283 1468.8 1225.6 2240.0 1862.9
PI6-9_532 0.270 1049.4 743.3 2785.9 2144.4
PI6-9_459 0.295 1596.4 878.3 2386.6 1546.7
PI6-9_219 0.303 2237.2 882.9 3066.2 1587.0
3_311 0.265 44.9 917.8 1903.7 3355.2
1_184 0.269 676.9 76.4 2537.6 2522.4
PI6-19_80 0.292 1584.2 492.3 2621.9 1370.0
2_339 0.269 677.0 76.2 2537.1 2522.3
1_214 0.268 677.0 76.0 2537.0 2522.2
PI4-9_9 0.266 59.6 689.1 2538.9 2516.5
PI4-19_391 0.281 2079.7 1410.5 3125.2 2308.5
PI6-4_238 0.535 475.7 581.4 1426.0 1588.4
1_661 0.267 44.5 918.5 1904.2 3356.9
3_19 0.297 551.3 1403.1 1454.4 2565.7
2_198 0.270 1742.2 543.1 3017.4 2451.8
2_587 0.374 1655.7 1191.2 2528.9 2319.9
2_178 0.269 1749.7 970.1 3013.0 2879.5
PI4-19_89 0.439 1024.6 1378.7 1824.6 2090.2
PI10-9_349 0.267 53.6 59.8 2544.4 1890.2
PI6-19_524 0.284 319.8 1473.9 1496.7 2451.0
1_512 0.266 1323.1 916.3 3163.2 3358.4
2_173 0.269 44.5 919.0 1904.4 3355.2
2_563 0.267 39.8 79.1 1907.2 2520.6
PI10-9_180 0.268 59.3 688.7 2539.6 2518.0
PI6-9_479 0.299 1600.4 1844.6 2403.9 2527.0
PI6-19_26 0.274 2335.9 728.9 4027.4 2158.9
PI10-9_392 0.273 2336.7 727.7 4024.4 2158.8
PI4-19_489 0.336 1344.5 754.8 2347.4 1749.3
3_153 0.269 1753.8 1396.7 3020.6 3299.5
PI4-9_273 0.265 2335.0 724.9 4016.8 2162.3
PI6-4_513 0.392 141.0 1290.3 1322.8 2361.2
PI4-19_399 0.279 1907.5 1715.2 2897.6 2623.5
2_113 0.268 1754.0 1395.1 3018.6 3303.0
PI6-9_304 0.279 1380.2 1086.5 2414.1 1979.6
PI6-4_306 0.382 1225.6 1577.9 2043.4 2259.2
2_570 0.273 1708.8 2017.4 2350.1 2867.9
2_203 0.271 1750.9 970.0 3013.8 2881.0
PI10-9_335 0.357 2264.5 778.2 3354.7 1782.9
PI6-9_135 0.333 448.4 1500.6 1446.0 2422.0
2_615 0.267 676.9 76.5 2536.6 2522.4
PI6-9_543 0.336 2711.5 376.5 3522.1 1095.9
PI6-9_312 0.269 2334.4 726.6 4019.3 2158.8
PI6-9_147 0.387 405.3 763.9 1436.6 1742.7
PI4-19_412 0.288 375.5 266.9 1219.7 887.3
PI4-19_515 0.302 1282.7 1041.2 2221.2 2010.8
1_428 0.267 44.8 919.0 1904.8 3354.6
PI10-9_154 0.354 518.8 890.1 1548.4 1893.9
PI10-9_49 0.503 1413.5 862.3 2470.3 1875.1
2_379 0.267 44.5 919.3 1905.4 3356.8
PI6-19_225 0.330 2310.8 1588.8 3429.3 2682.5
PI6-9_101 0.298 1853.4 1473.4 2637.5 2198.8
PI6-9_447 0.289 1697.0 1377.2 2615.2 2320.4
2_252 0.317 893.8 219.2 1908.2 1303.1
PI10-9_123 0.271 535.1 374.3 2471.3 1256.5
PI6-19_72 0.277 947.2 1023.4 2910.9 1890.0
PI6-4_462 0.298 204.3 1082.9 957.4 1705.8
PI6-4_465 0.285 2338.7 1175.4 3485.6 2206.0
PI4-9_3 0.267 902.9 57.4 3383.5 1891.8
PI4-9_32 0.269 2341.1 1049.2 4028.1 2476.4
2_486 0.268 1755.8 1395.0 3020.2 3303.4
2_535 0.269 40.0 79.1 1907.8 2520.0
PI6-9_96 0.311 1370.5 555.7 2201.6 1236.0
PI6-9_158 0.349 809.9 1185.6 1560.6 1845.2
1_291 0.269 676.8 75.9 2536.8 2523.0
PI10-9_88 0.268 2320.5 410.3 4022.3 1841.3
PI10-9_472 0.332 352.4 1161.3 1606.6 2139.8
1_606 0.342 635.1 765.4 1558.1 1916.2
1_216 0.266 44.6 918.2 1904.1 3356.9
PI6-9_496 0.290 1212.6 721.1 2158.9 1646.5
PI6-4_653 0.324 1830.0 698.6 2630.6 1439.4
1_172 0.279 710.2 1365.3 2184.0 2520.0
PI6-9_308 0.297 2217.6 589.5 3051.0 1220.7
PI10-9_377 0.269 59.2 689.0 2539.2 2517.3
PI4-9_452 0.272 2332.6 728.0 4021.8 2161.7
PI4-19_542 0.266 2331.7 725.1 4017.1 2159.9
1_336 0.268 1750.4 970.2 3015.3 2882.5
2_112 0.271 1749.5 970.5 3014.3 2877.4
2_403 0.269 679.8 1789.3 2529.1 4192.8
PI6-9_99 0.381 2265.8 1520.9 3241.6 2505.2
PI4-19_212 0.269 2378.3 1432.3 3308.6 2011.6
PI6-19_162 0.333 2595.6 1197.0 3708.5 2218.6
2_284 0.268 44.8 918.9 1904.5 3356.5
PI4-19_118 0.318 77.1 1213.6 1213.6 2189.0
1_486 0.332 882.8 2238.3 1845.3 3341.7
PI6-4_193 0.264 2542.4 1625.2 3697.9 2688.3
3_69 0.266 44.3 920.6 1906.4 3357.4
PI6-4_400 0.267 59.6 688.7 2540.0 2517.0
2_340 0.268 44.7 919.5 1905.2 3356.1
2_385 0.269 40.3 79.1 1908.0 2521.2
PI4-19_9 0.489 839.6 635.6 1841.9 1583.3
PI6-4_422 0.362 1241.7 1685.9 2023.2 2391.2
PI4-9_199 0.271 2334.0 724.9 4020.0 2160.4
PI6-9_166 0.349 1170.6 1374.0 2191.3 2325.3
2_433 0.290 1223.5 123.5 1811.9 980.3
PI4-19_405 0.266 53.8 59.2 2542.0 1889.6
PI6-9_178 0.290 1415.3 677.6 2408.8 1662.2
PI6-4_128 0.267 59.3 689.4 2540.6 2517.1
3_96 0.266 44.7 917.5 1903.4 3356.9
3_662 0.268 44.7 918.2 1904.2 3356.8
PI4-9_536 0.267 59.0 688.7 2538.7 2516.9
PI6-4_21 0.266 59.7 689.4 2538.8 2516.5
PI10-9_420 0.327 921.3 577.7 1735.9 1215.8
1_607 0.268 44.2 918.8 1903.5 3356.3
3_618 0.265 45.2 918.5 1904.5 3354.6
PI4-9_426 0.265 2335.3 726.4 4015.6 2163.8
1_616 0.271 395.9 1364.5 1858.6 2525.3
PI6-19_418 0.266 59.7 689.3 2539.6 2516.5
2_145 0.290 1854.9 2261.0 2496.7 3110.3
PI6-19_175 0.271 525.9 1022.9 2478.4 1892.9
PI6-9_413 0.270 2339.8 1048.4 4027.8 2475.6
3_500 0.268 1740.4 546.2 3018.3 2452.3
PI6-4_640 0.265 902.7 57.6 3382.8 1891.1
PI6-9_329 0.273 584.1 1042.5 1344.5 1726.6
1_647 0.266 44.8 919.0 1904.4 3355.2
1_131 0.266 676.8 76.5 2537.7 2521.9
PI6-9_156 0.285 1582.1 1347.1 2643.5 2379.6
PI4-9_78 0.266 1415.1 1050.9 2222.5 1673.6
3_341 0.266 40.1 79.8 1908.4 2520.4
3_45 0.269 44.1 919.2 1904.4 3357.2
PI10-9_93 0.270 2334.6 727.9 4022.3 2159.9
2_125 0.268 1757.5 1395.2 3020.2 3303.1
2_166 0.268 679.1 1789.4 2529.2 4193.7
PI10-9_264 0.269 1027.8 714.5 2204.3 1704.9
PI4-19_409 0.262 59.5 688.9 2538.5 2516.8
PI4-19_34 0.269 59.1 689.0 2539.3 2518.0
2_452 0.269 676.8 76.0 2537.4 2522.4
PI6-4_208 0.436 58.4 1653.0 1075.4 2667.4
PI6-19_267 0.368 1504.6 955.8 2523.2 2050.2
PI4-9_18 0.269 59.1 689.2 2539.7 2517.3
PI6-19_174 0.268 524.3 1343.4 2478.6 2216.3
3_595 0.268 40.3 79.4 1908.0 2519.9
PI6-9_224 0.321 714.9 476.1 1790.3 1507.3
3_390 0.266 44.3 918.3 1903.8 3355.5
PI4-19_205 0.262 2319.4 409.4 4022.1 1840.6
PI4-9_168 0.270 58.8 688.7 2538.8 2517.8
1_392 0.268 44.5 919.0 1904.7 3355.5
PI6-4_544 0.268 2333.6 725.1 4017.2 2157.5
PI10-9_47 0.272 2337.9 726.8 4022.8 2161.0
PI6-9_64 0.281 2497.2 1220.8 3298.1 1857.8
PI6-9_239 0.269 529.1 1023.0 2477.6 1894.8
1_295 0.264 1757.2 1394.6 3018.8 3303.9
PI6-19_540 0.294 2108.8 1278.1 3245.6 2395.3
PI6-4_66 0.259 905.6 1341.8 3370.5 3143.2
PI4-19_38 0.398 998.7 999.8 2024.2 1973.1
PI6-9_225 0.269 59.6 689.6 2539.1 2517.0
PI10-9_320 0.435 1850.4 1415.9 2922.6 2447.9
2_389 0.270 1750.4 967.9 3014.3 2877.5
PI10-9_14 0.355 1313.5 1325.8 2420.4 2312.1
3_459 0.268 1322.7 915.8 3163.3 3358.7
PI6-9_328 0.379 429.4 1224.8 1564.6 2226.8
PI6-19_109 0.358 1640.6 1439.9 2537.8 2392.9
1_41 0.262 679.5 1789.5 2529.4 4191.6
1_283 0.274 1307.8 217.2 2377.2 1197.6
PI6-4_489 0.271 597.4 1550.0 1446.5 2168.9
PI6-19_38 0.274 1128.2 1309.8 2075.7 2273.1
3_527 0.266 1322.8 915.3 3162.2 3358.6
PI10-9_227 0.270 2335.1 726.1 4022.7 2160.4
PI6-4_571 0.265 59.5 689.6 2541.0 2516.9
1_374 0.268 44.5 918.4 1904.3 3356.6
PI10-9_493 0.266 1764.3 687.8 4217.7 2517.0
PI4-9_319 0.268 2341.4 1048.0 4028.9 2474.5
2_336 0.328 1938.4 2065.9 2749.0 3231.5
PI6-9_299 0.270 526.6 1022.1 2476.8 1894.4
PI4-19_314 0.354 2452.6 433.8 3563.8 1400.4
PI6-9_392 0.294 809.5 1337.0 1538.2 2001.1
PI6-9_65 0.340 1362.3 557.1 2200.5 1254.9
3_503 0.265 44.3 917.8 1903.6 3358.0
PI4-19_442 0.362 2414.1 320.4 3398.2 1235.4
PI6-19_3 0.272 525.1 1023.5 2478.8 1892.8
PI6-9_50 0.314 1169.3 1550.3 1962.5 2196.8
PI4-9_138 0.267 952.1 1021.6 2902.6 1893.1
PI4-9_453 0.355 1087.5 524.1 2187.9 1331.7
PI6-9_322 0.328 2195.8 1427.3 3284.8 2314.4
3_394 0.266 1754.1 1397.4 3015.8 3304.3
PI6-4_401 0.264 1763.5 686.4 4215.8 2519.3
PI4-9_0 0.266 59.6 688.6 2538.6 2516.6
3_370 0.347 1488.1 1635.8 2188.1 2478.7
PI4-9_367 0.272 326.7 1872.9 1190.6 2495.0
PI4-9_33 0.270 2334.6 727.6 4022.0 2159.4
PI10-9_202 0.267 54.0 59.5 2543.6 1890.1
3_188 0.268 44.3 918.0 1903.8 3356.5
1_567 0.265 44.3 917.8 1904.2 3357.8
PI6-4_542 0.270 2343.1 1046.2 4026.3 2478.1
PI10-9_58 0.370 858.8 1159.9 2037.3 2265.6
PI6-4_527 0.302 2610.6 1585.0 3588.0 2461.5
PI6-4_327 0.326 2152.8 345.9 3113.6 1171.0
1_594 0.266 1748.2 1836.0 3028.8 3693.4
PI6-9_159 0.296 2491.0 564.1 3460.5 1491.1
PI6-4_459 0.266 58.8 688.4 2538.6 2518.1
PI4-19_10 0.309 627.9 1771.6 1380.0 2398.5
PI6-4_221 0.279 1916.2 776.7 3043.5 1906.5
PI6-4_177 0.270 2333.7 725.0 4017.3 2158.8
PI4-9_515 0.266 902.2 57.4 3382.5 1891.9
PI10-9_166 0.268 514.3 48.0 2488.1 930.5
PI4-19_483 0.267 59.1 689.0 2537.1 2516.4
1_196 0.268 1322.8 915.4 3163.7 3358.9
PI6-9_215 0.273 2341.7 1048.1 4028.3 2476.6
PI4-9_508 0.269 58.9 688.6 2539.1 2517.7
3_663 0.268 44.4 918.7 1904.3 3356.8
PI6-19_346 0.274 183.4 406.1 1354.8 1455.9
PI6-4_268 0.311 992.9 1594.7 2053.5 2587.4
PI6-9_512 0.350 2484.0 551.5 3625.0 1504.8
3_262 0.268 45.1 919.4 1905.5 3356.0
2_370 0.269 44.3 918.7 1904.2 3355.9
PI6-4_132 0.277 2038.0 486.5 3172.7 1373.8
PI6-9_168 0.281 364.9 1670.0 1580.3 2685.3
PI4-9_11 0.270 2333.9 728.4 4021.5 2158.6
2_142 0.266 827.6 1452.7 1671.4 2535.9
1_88 0.292 1078.7 1801.2 1663.4 2674.1
2_52 0.267 1753.7 1396.8 3019.8 3300.4
PI4-19_475 0.287 1494.5 741.3 2163.6 1343.8
PI4-19_447 0.267 59.4 688.8 2539.4 2517.4
1_378 0.269 1751.1 969.2 3013.6 2878.5
PI4-19_419 0.269 952.9 1022.4 2906.0 1893.2
PI6-9_236 0.292 1210.6 1206.5 2021.8 1892.5
PI6-9_196 0.364 522.0 1507.9 1481.4 2490.1
1_460 0.268 1035.5 51.1 2140.3 991.7
PI6-9_291 0.327 2398.0 1444.8 3327.1 2367.4
PI10-9_34 0.523 2605.7 1247.3 3634.3 2186.9
PI6-4_92 0.277 760.1 1360.1 1544.8 2015.0
PI6-9_378 0.373 2565.6 565.0 3689.8 1577.2
PI6-4_5 0.272 2334.2 729.6 4022.4 2158.1
3_77 0.267 40.2 79.6 1907.8 2521.3
PI6-9_501 0.327 1651.7 1256.8 2605.9 2196.3
3_53 0.268 44.2 918.8 1904.9 3356.6
1_617 0.267 1750.2 968.7 3012.7 2879.7
PI10-9_478 0.269 529.0 1022.3 2478.5 1895.8
PI6-4_517 0.268 2333.8 725.1 4017.9 2158.9
2_522 0.270 40.2 78.4 1907.7 2520.6
PI6-9_45 0.322 406.8 736.2 1536.4 1701.6
3_423 0.266 1749.8 969.0 3013.3 2878.7
2_28 0.267 44.7 919.3 1905.2 3356.9
3_494 0.265 679.7 923.1 2533.9 3357.0
3_254 0.266 679.2 1789.3 2528.9 4192.6
PI6-9_540 0.348 2899.5 1215.2 3824.8 2136.4
PI6-4_388 0.267 59.6 689.3 2539.6 2516.8
2_599 0.271 1749.8 970.1 3015.3 2877.8
PI10-9_147 0.268 2332.7 727.3 4019.4 2161.2
PI6-4_374 0.287 1907.0 688.0 2671.5 1400.4
PI6-19_445 0.271 58.1 688.1 2538.0 2519.0
2_514 0.269 44.5 918.3 1904.2 3356.6
PI10-9_409 0.462 1864.1 796.2 2962.6 1812.0
PI6-9_518 0.340 2268.0 567.9 3045.3 1225.3
PI10-9_269 0.352 2476.3 1016.2 3566.5 2014.9
1_289 0.271 1750.1 968.6 3012.2 2879.5
PI4-9_582 0.269 58.9 688.6 2538.5 2518.2
2_110 0.268 44.5 918.9 1905.4 3356.0
3_421 0.269 44.4 917.6 1903.7 3356.2
PI4-9_467 0.267 1763.8 686.4 4218.1 2519.2
PI10-9_22 0.268 59.6 688.7 2539.6 2517.9
3_397 0.267 678.8 1789.0 2528.3 4193.7
3_249 0.269 40.0 79.0 1907.6 2521.1
PI4-9_526 0.266 832.6 895.8 1639.7 1528.1
PI6-19_25 0.293 572.8 73.2 1360.0 710.4
PI4-9_182 0.270 527.9 1023.0 2479.4 1894.0
PI6-19_395 0.384 2080.9 310.5 3071.7 1252.9
1_64 0.269 44.5 918.7 1904.6 3357.2
PI6-4_341 0.264 904.9 1342.3 3370.5 3144.2
PI6-19_324 0.277 537.5 1063.0 1563.2 1996.1
PI6-4_652 0.295 294.2 1678.2 1274.2 2544.6
PI6-4_307 0.265 902.6 58.8 3383.7 1890.5
1_286 0.266 44.7 919.3 1905.3 3355.6
PI4-19_215 0.270 1607.4 252.4 2558.8 1177.5
3_143 0.268 44.4 917.7 1904.7 3357.8
PI4-9_511 0.267 1815.8 1012.5 3751.4 1893.7
PI6-9_520 0.267 59.1 689.1 2539.2 2518.0
PI6-9_247 0.325 2445.4 461.0 3559.5 1391.4
PI4-9_44 0.267 1763.8 686.6 4218.8 2519.2
3_480 0.266 44.8 918.0 1904.5 3356.4
2_141 0.265 1323.2 915.2 3162.9 3358.8
PI6-4_349 0.265 2322.2 407.2 4021.4 1841.7
PI4-9_281 0.269 2333.0 726.6 4019.4 2160.4
PI10-9_400 0.288 1370.0 756.2 2402.4 1811.8
2_650 0.284 954.6 922.2 1834.9 2081.0
PI6-9_302 0.268 902.5 56.9 3383.0 1892.4
2_590 0.269 676.8 75.7 2537.1 2522.9
PI4-19_236 0.278 1667.7 1385.5 2716.7 2357.4
3_493 0.312 1517.1 2049.8 2155.5 2878.8
2_435 0.269 44.4 918.7 1904.5 3356.6
3_180 0.267 44.1 918.9 1904.7 3356.9
1_40 0.269 397.1 1363.5 1858.2 2526.3
PI6-4_574 0.265 2333.6 725.9 4018.4 2160.8
PI10-9_273 0.354 2267.7 1145.3 3334.4 2099.3
1_443 0.267 44.2 918.8 1904.3 3357.1
PI4-19_270 0.323 1983.9 1130.7 2948.2 1949.7
PI10-9_434 0.268 59.5 688.5 2539.9 2517.7
1_502 0.270 1231.6 2452.6 1840.2 3266.1
PI10-9_363 0.270 2334.3 726.5 4021.5 2158.3
PI4-19_197 0.483 1104.8 1182.5 2107.3 2164.8
2_651 0.267 721.3 930.2 2177.9 2097.9
PI4-19_522 0.354 1265.5 1297.9 2249.6 2283.1
3_636 0.269 676.8 76.0 2537.4 2520.8
1_429 0.304 855.2 1220.8 1782.8 2290.3
PI4-19_307 0.416 1992.7 438.1 2980.6 1507.4
3_501 0.269 40.0 79.2 1908.1 2521.5
3_218 0.275 1063.7 1396.7 1689.8 2217.7
PI6-19_555 0.362 1978.7 1604.5 2976.2 2680.1
PI10-9_306 0.269 2332.2 726.7 4017.7 2160.8
3_36 0.266 1748.5 970.5 3014.4 2878.1
PI4-9_505 0.266 59.3 689.3 2539.5 2516.6
3_575 0.268 40.5 79.7 1907.7 2519.7
PI6-4_172 0.269 2333.2 729.0 4021.0 2158.8
2_328 0.270 1751.1 968.6 3014.9 2879.1
PI6-4_241 0.304 1649.4 1075.7 2654.9 2073.1
PI10-9_399 0.339 1809.2 754.0 2915.6 1744.0
3_166 0.266 44.7 918.9 1904.7 3355.9
PI6-4_509 0.268 898.8 994.3 1944.6 1988.5
3_411 0.269 44.2 918.7 1904.6 3357.8
PI6-4_226 0.384 2560.6 724.2 3320.9 1437.2
PI6-4_69 0.268 2335.2 723.9 4018.8 2157.9
3_567 0.266 44.6 918.7 1904.9 3355.6
PI4-9_472 0.272 2332.5 728.5 4020.5 2160.1
PI6-9_217 0.312 458.7 563.3 1569.9 1540.5
1_352 0.345 1340.0 1654.1 2359.2 2718.4
1_1 0.309 1395.9 1633.1 2009.1 2478.0
PI6-4_528 0.268 2334.9 726.6 4019.2 2161.3
PI4-9_251 0.271 1910.5 735.1 3634.4 2150.8
1_281 0.265 44.6 919.0 1904.5 3356.0
3_600 0.296 677.0 2361.4 1645.1 3393.3
PI4-9_1 0.269 1697.8 1849.4 2820.4 2855.8
PI6-19_168 0.282 1925.8 711.6 2804.5 1667.2
3_72 0.292 1616.8 2154.6 2478.1 3278.9
PI6-19_128 0.268 59.4 689.5 2539.5 2517.0
PI10-9_361 0.415 1536.5 707.9 2582.0 1685.0
PI4-9_434 0.268 53.6 59.9 2544.7 1890.8
1_503 0.262 1430.9 979.1 2720.9 2870.3
PI6-19_130 0.358 2321.7 674.6 3063.7 1413.2
PI6-9_140 0.269 2340.9 1045.8 4026.1 2476.7
PI6-9_33 0.345 1171.0 1036.8 1978.9 1734.4
1_622 0.265 44.5 918.3 1904.1 3355.4
PI4-9_201 0.269 2334.2 726.0 4020.2 2159.2
PI6-9_372 0.359 1991.6 1611.1 2988.1 2500.6
2_660 0.270 1751.3 968.9 3015.3 2878.8
1_490 0.268 44.3 917.7 1903.2 3357.3
PI6-9_421 0.326 1124.6 1485.0 2143.1 2423.5
PI4-9_87 0.267 58.6 689.1 2539.1 2517.8
PI4-9_382 0.268 1764.2 686.7 4218.4 2519.5
PI10-9_341 0.287 1094.5 1184.1 2222.2 2193.6
PI4-19_18 0.288 1166.3 696.7 2177.3 1723.5
PI6-4_215 0.511 1330.9 671.0 2362.4 1584.9
2_304 0.269 397.3 1364.4 1858.5 2527.2
3_73 0.268 44.6 918.5 1903.9 3355.9
PI6-9_116 0.271 2157.4 2013.2 3162.4 2924.4
3_236 0.267 44.6 919.3 1903.6 3356.3
1_20 0.267 45.2 918.9 1905.4 3355.6
3_230 0.267 1323.3 915.9 3164.1 3358.5
3_461 0.266 40.5 79.2 1907.8 2520.2
PI6-4_154 0.267 58.7 688.4 2538.8 2518.1
PI6-4_365 0.267 59.7 689.3 2540.1 2517.4
PI10-9_270 0.475 866.0 840.4 1933.7 1907.4
PI6-4_426 0.263 905.6 1342.5 3371.3 3143.4
PI6-9_491 0.322 430.6 686.5 1531.6 1695.3
PI6-9_201 0.323 994.4 1677.4 1906.8 2626.0
PI6-9_187 0.310 1390.4 423.4 2208.9 1069.8
PI4-19_67 0.267 2322.9 408.8 4023.7 1839.2
PI6-4_380 0.264 905.9 1342.5 3370.9 3142.5
PI4-9_492 0.267 902.4 57.5 3382.9 1892.5
PI10-9_382 0.378 244.1 1225.0 1408.9 2220.5
PI4-19_549 0.267 59.2 688.5 2539.2 2517.4
PI6-19_144 0.268 2323.5 408.2 4025.9 1837.6
PI6-9_355 0.271 2332.1 726.1 4020.7 2159.5
PI6-9_348 0.298 1042.1 904.0 2054.2 1800.5
3_554 0.267 44.4 919.0 1904.5 3356.0
2_8 0.272 1751.4 967.8 3016.2 2878.8
PI4-9_514 0.264 905.6 1342.5 3371.5 3143.6
PI6-9_522 0.304 2479.4 1196.3 3611.8 2129.6
PI6-19_552 0.271 58.1 688.5 2537.8 2518.8
1_100 0.269 786.1 989.9 2089.3 2858.2
3_88 0.271 1751.7 969.0 3016.0 2878.9
PI6-19_431 0.270 528.2 1022.9 2478.2 1894.1
PI4-19_394 0.268 58.9 688.8 2538.9 2517.5
PI6-19_216 0.365 1686.2 1003.2 2335.2 1768.1
2_647 0.344 952.0 823.6 1801.8 1920.1
PI6-19_341 0.268 2323.0 409.5 4022.3 1840.9
PI6-4_303 0.346 987.5 1730.8 2002.0 2719.2
1_572 0.267 45.0 919.4 1904.6 3355.9
3_192 0.267 44.8 918.4 1905.1 3356.0
PI6-4_505 0.281 795.4 731.5 1890.4 1756.4
PI6-19_218 0.273 527.5 1023.5 2481.0 1893.8
PI6-9_10 0.431 2023.4 1841.9 3035.1 2818.0
PI4-19_127 0.267 58.9 688.5 2539.2 2517.8
PI4-19_520 0.268 216.3 728.5 1917.6 2168.2
1_191 0.266 1749.5 969.6 3012.1 2879.0
PI6-4_310 0.263 905.9 1342.2 3371.6 3143.9
PI6-4_508 0.336 691.6 1283.4 1812.6 2231.0
PI6-19_467 0.272 974.0 857.1 2047.8 1850.5
3_256 0.266 397.4 1363.0 1857.8 2526.7
3_210 0.268 396.9 1363.5 1857.4 2527.2
1_25 0.267 40.4 78.9 1907.1 2519.5
2_613 0.271 473.4 982.2 1762.0 2876.5
PI4-19_157 0.322 1414.6 1570.2 2428.7 2548.7
1_145 0.267 44.6 918.6 1904.1 3356.5
PI6-9_127 0.339 674.7 459.8 1664.9 1432.4
PI4-19_596 0.430 861.3 791.9 1960.5 1873.2
PI6-9_444 0.311 1028.9 460.2 2003.1 1335.6
PI4-19_55 0.265 53.7 59.4 2543.1 1890.5
3_199 0.265 44.8 919.6 1904.6 3355.3
3_389 0.266 44.8 918.8 1905.1 3356.4
PI4-19_65 0.268 59.5 688.9 2539.6 2517.5
PI6-4_105 0.266 1763.8 686.4 4217.9 2519.6
3_3 0.267 44.9 919.2 1905.2 3354.8
2_295 0.268 1751.0 969.5 3015.6 2877.3
PI6-4_36 0.379 2182.0 1300.2 3208.2 2163.8
PI6-9_78 0.287 591.3 712.1 1636.8 1638.5
1_551 0.269 1751.2 970.5 3015.5 2878.5
PI6-9_55 0.291 1160.2 204.6 2207.8 1249.2
1_483 0.273 1572.4 469.9 2597.5 1582.6
PI4-9_257 0.266 59.0 688.1 2538.9 2518.2
PI6-4_342 0.267 59.4 688.2 2538.8 2517.6
3_376 0.265 44.6 918.1 1903.2 3356.2
PI6-9_493 0.331 2692.3 941.9 3686.7 1824.6
3_513 0.266 679.4 1789.5 2528.7 4192.6
PI4-9_191 0.269 58.8 688.6 2539.7 2518.3
2_51 0.270 1370.5 1197.2 2372.9 2171.5
PI6-4_4 0.268 2323.6 406.9 4020.9 1840.1
1_104 0.271 395.1 1364.5 1859.7 2525.4
PI6-19_54 0.267 53.5 59.1 2542.7 1890.8
3_487 0.267 677.0 76.0 2536.7 2522.5
3_498 0.280 1519.4 2452.5 2167.5 3283.8
PI4-19_259 0.267 59.6 689.2 2538.5 2516.3
1_14 0.267 1323.0 915.1 3163.3 3358.4
PI4-9_442 0.325 1318.8 913.5 2361.9 1873.7
3_615 0.269 2261.0 1816.1 3773.9 2934.9
1_646 0.268 44.3 918.5 1904.9 3357.3
PI6-9_111 0.325 1650.9 1391.7 2379.0 2042.3
PI6-4_518 0.332 1692.5 1379.3 2498.5 2095.7
PI6-19_370 0.274 951.0 1022.8 2906.9 1890.5
PI6-4_131 0.266 59.3 689.3 2540.3 2517.5
PI6-4_299 0.266 2339.3 1044.0 4021.6 2478.1
PI10-9_100 0.267 2336.8 726.0 4022.3 2160.5
3_609 0.269 1751.9 971.9 3021.4 2875.9
PI6-4_604 0.268 2301.7 1547.6 3288.8 2401.3
PI4-9_275 0.267 58.7 689.1 2539.0 2517.7
3_298 0.267 44.5 918.8 1904.1 3356.1
PI4-9_483 0.267 59.0 689.1 2538.8 2517.8
PI6-4_232 0.267 902.4 57.7 3382.5 1891.6
PI4-9_255 0.268 59.5 688.3 2538.5 2516.8
2_426 0.268 714.0 1362.1 2179.1 2523.9
3_38 0.266 1750.4 968.5 3013.6 2880.9
2_45 0.274 1567.0 2917.9 2156.8 3787.1
PI4-19_299 0.388 1521.6 601.4 2500.5 1571.0
PI10-9_348 0.436 1920.0 1119.3 3011.8 2092.2
PI6-9_59 0.319 1192.4 1669.1 1978.0 2347.2
2_529 0.268 45.0 918.6 1905.4 3356.3
PI6-19_345 0.302 1819.4 552.1 2832.1 1465.9
PI6-4_11 0.316 488.7 106.5 1615.6 1020.1
1_481 0.267 44.3 918.5 1904.6 3356.3
PI4-19_358 0.425 1724.6 797.1 2746.0 1711.2
2_29 0.268 712.5 1361.9 2180.1 2523.9
3_22 0.264 44.0 918.6 1903.9 3356.7
2_407 0.267 1363.0 1348.9 2813.5 2526.6
PI6-4_254 0.266 59.4 689.1 2539.6 2516.8
PI4-9_23 0.292 2107.9 1061.6 3234.6 2056.9
2_205 0.267 45.1 918.7 1904.9 3355.8
PI4-19_413 0.264 1763.6 687.2 4217.0 2517.8
PI10-9_290 0.269 528.7 1022.1 2480.7 1895.0
PI6-19_18 0.384 2169.6 1457.4 3147.9 2522.4
PI10-9_25 0.267 2324.8 408.5 4023.6 1840.5
3_507 0.266 1750.1 969.0 3012.9 2880.6
2_312 0.269 44.5 918.9 1904.4 3357.0
PI6-9_458 0.280 2447.8 742.1 3522.4 1723.5
PI6-4_377 0.265 2334.3 723.6 4013.5 2162.2
PI6-4_454 0.266 2335.1 725.3 4016.6 2160.8
3_650 0.267 44.6 919.1 1904.5 3356.7
PI6-4_20 0.348 2319.5 759.0 3380.5 1807.1
PI4-19_115 0.306 2051.7 1608.9 3138.1 2498.5
PI4-9_567 0.390 417.5 1605.7 1548.1 2544.2
PI4-19_497 0.268 54.1 59.1 2543.5 1890.2
PI10-9_236 0.455 1078.5 547.8 2099.1 1558.0
1_590 0.298 841.9 2355.1 1512.3 3166.8
PI6-19_507 0.268 2333.7 728.2 4022.6 2157.4
2_21 0.270 1433.8 978.7 2725.0 2866.8
PI6-9_126 0.407 2686.1 1399.4 3576.4 2358.9
